module gitlab.com/bboehmke/iot-pi

go 1.17

require (
	github.com/gin-gonic/gin v1.7.7
	github.com/hashicorp/go-version v1.3.0
	github.com/stretchr/testify v1.7.0
	github.com/xanzy/go-gitlab v0.52.2
	gitlab.com/raspi-alpine/go-raspi-alpine v0.0.0-20211225112919-2293efba9440
	gopkg.in/yaml.v3 v3.0.0-20200313102051-9f266ea9e77c
)

require (
	github.com/GehirnInc/crypt v0.0.0-20190301055215-6c0105aabd46 // indirect
	github.com/davecgh/go-spew v1.1.1 // indirect
	github.com/gin-contrib/sse v0.1.0 // indirect
	github.com/go-playground/locales v0.13.0 // indirect
	github.com/go-playground/universal-translator v0.17.0 // indirect
	github.com/go-playground/validator/v10 v10.4.1 // indirect
	github.com/golang/protobuf v1.3.3 // indirect
	github.com/google/go-querystring v1.0.0 // indirect
	github.com/hashicorp/go-cleanhttp v0.5.1 // indirect
	github.com/hashicorp/go-retryablehttp v0.6.8 // indirect
	github.com/json-iterator/go v1.1.9 // indirect
	github.com/leodido/go-urn v1.2.0 // indirect
	github.com/mattn/go-isatty v0.0.12 // indirect
	github.com/modern-go/concurrent v0.0.0-20180228061459-e0a39a4cb421 // indirect
	github.com/modern-go/reflect2 v0.0.0-20180701023420-4b7aa43c6742 // indirect
	github.com/pmezard/go-difflib v1.0.0 // indirect
	github.com/ugorji/go/codec v1.1.7 // indirect
	golang.org/x/crypto v0.0.0-20200622213623-75b288015ac9 // indirect
	golang.org/x/net v0.0.0-20201021035429-f5854403a974 // indirect
	golang.org/x/oauth2 v0.0.0-20181106182150-f42d05182288 // indirect
	golang.org/x/sys v0.0.0-20210423082822-04245dca01da // indirect
	golang.org/x/time v0.0.0-20191024005414-555d28b269f0 // indirect
	google.golang.org/appengine v1.3.0 // indirect
	gopkg.in/yaml.v2 v2.2.8 // indirect
)
